{
    "fluentMethods": true,
    "relationships": [],
    "fields": [
        {
            "fieldName": "title",
            "fieldType": "String",
            "fieldValidateRules": [
                "required"
            ]
        },
        {
            "fieldName": "description",
            "fieldType": "String"
        }
    ],
    "dto": "mapstruct",
    "service": "serviceImpl",
    "entityTableName": "domain",
    "jpaMetamodelFiltering": false,
    "pagination": "pager"
}
