{
    "fluentMethods": true,
    "relationships": [],
    "fields": [
        {
            "fieldName": "title",
            "fieldType": "String"
        },
        {
            "fieldName": "description",
            "fieldType": "String"
        },
        {
            "fieldName": "createdOn",
            "fieldType": "LocalDate"
        }
    ],
    "dto": "mapstruct",
    "service": "serviceImpl",
    "entityTableName": "proof",
    "jpaMetamodelFiltering": false,
    "pagination": "pager"
}
